aula04/parte01/simulation/qsim/FlipFlopD_Demo.msim.vcd
$comment
	File created using the following command:
		vcd file FlipFlopD_Demo.msim.vcd -direction
$end
$date
	Sun Apr 10 02:48:25 2022
$end
$version
	ModelSim Version 10.5b
$end
$timescale
	1ps
$end

$scope module flipflopd_vhd_vec_tst $end
$var wire 1 ! clk $end
$var wire 1 " d $end
$var wire 1 # q $end
$var wire 1 $ reset $end
$var wire 1 % set $end

$scope module i1 $end
$var wire 1 & gnd $end
$var wire 1 ' vcc $end
$var wire 1 ( unknown $end
$var wire 1 ) devoe $end
$var wire 1 * devclrn $end
$var wire 1 + devpor $end
$var wire 1 , ww_devoe $end
$var wire 1 - ww_devclrn $end
$var wire 1 . ww_devpor $end
$var wire 1 / ww_clk $end
$var wire 1 0 ww_reset $end
$var wire 1 1 ww_set $end
$var wire 1 2 ww_d $end
$var wire 1 3 ww_q $end
$var wire 1 4 \q~output_o\ $end
$var wire 1 5 \clk~input_o\ $end
$var wire 1 6 \d~input_o\ $end
$var wire 1 7 \set~input_o\ $end
$var wire 1 8 \reset~input_o\ $end
$var wire 1 9 \q~0_combout\ $end
$var wire 1 : \q~reg0_q\ $end
$upscope $end
$upscope $end
$enddefinitions $end
#0
$dumpvars
0!
0"
0#
0$
0%
0&
1'
x(
1)
1*
1+
1,
1-
1.
0/
00
01
02
03
04
05
06
07
08
09
0:
$end
#10000
1%
11
17
#15000
1"
12
16
19
#30000
1!
1/
15
1:
14
13
1#
#50000
0%
01
07
#60000
0!
0"
0/
02
06
05
#75000
1"
12
16
#90000
1!
1/
15
#110000
1%
11
17
#120000
0!
0"
0/
02
06
05
09
#130000
0%
01
07
19
#135000
1"
12
16
#140000
1$
10
18
09
#150000
1!
1/
15
0:
04
03
0#
#160000
0$
00
08
#180000
0!
0"
0/
02
06
05
#195000
1"
12
16
#210000
1!
1/
15
#240000
0!
0"
0/
02
06
05
#255000
1"
12
16
#270000
1!
1/
15
#280000
1$
10
18
#300000
0$
0!
0"
00
0/
02
06
05
08
#315000
1"
12
16
#330000
1!
1/
15
#360000
0!
0"
0/
02
06
05
#375000
1"
12
16
#390000
1!
1/
15
#420000
0!
0"
0/
02
06
05
#435000
1"
12
16
#450000
1!
1/
15
#480000
0!
0"
0/
02
06
05
#500000
1$
1%
10
11
17
18
#510000
1!
1/
15
#520000
0$
0%
00
01
07
08
#535000
1"
12
16
#540000
0!
0/
05
#550000
0"
02
06
#570000
1!
1/
15
#590000
1$
1%
10
11
17
18
#595000
1"
12
16
#600000
0!
0/
05
#610000
0"
0$
0%
02
00
01
07
08
06
#630000
1!
1/
15
#655000
1"
12
16
#660000
0!
0/
05
#670000
0"
02
06
#690000
1!
1/
15
#715000
1"
12
16
#720000
0!
0/
05
#730000
0"
02
06
#750000
1!
1/
15
#775000
1"
12
16
#780000
0!
0/
05
#790000
0"
02
06
#810000
1!
1/
15
#835000
1"
12
16
#840000
0!
0/
05
#850000
0"
02
06
#870000
1!
1/
15
#895000
1"
12
16
#900000
0!
0/
05
#910000
0"
02
06
#930000
1!
1/
15
#955000
1"
12
16
#960000
0!
0/
05
#970000
0"
02
06
#990000
1!
1/
15
