aula02/parte02/simulation/qsim/Mux2_1Demo.msim.vcd
$comment
	File created using the following command:
		vcd file Mux2_1Demo.msim.vcd -direction
$end
$date
	Tue Mar 22 11:10:37 2022
$end
$version
	ModelSim Version 10.5b
$end
$timescale
	1ps
$end

$scope module mux2_1_vhd_vec_tst $end
$var wire 1 ! inputs [2] $end
$var wire 1 " inputs [1] $end
$var wire 1 # inputs [0] $end
$var wire 1 $ output $end

$scope module i1 $end
$var wire 1 % gnd $end
$var wire 1 & vcc $end
$var wire 1 ' unknown $end
$var wire 1 ( devoe $end
$var wire 1 ) devclrn $end
$var wire 1 * devpor $end
$var wire 1 + ww_devoe $end
$var wire 1 , ww_devclrn $end
$var wire 1 - ww_devpor $end
$var wire 1 . ww_inputs [2] $end
$var wire 1 / ww_inputs [1] $end
$var wire 1 0 ww_inputs [0] $end
$var wire 1 1 ww_output $end
$var wire 1 2 \output~output_o\ $end
$var wire 1 3 \inputs[1]~input_o\ $end
$var wire 1 4 \inputs[0]~input_o\ $end
$var wire 1 5 \inputs[2]~input_o\ $end
$var wire 1 6 \output~0_combout\ $end
$upscope $end
$upscope $end
$enddefinitions $end
#0
$dumpvars
0$
0%
1&
x'
1(
1)
1*
1+
1,
1-
01
02
03
04
05
06
0!
0"
0#
0.
0/
00
$end
#40000
1#
10
14
16
12
11
1$
#80000
0#
1"
00
1/
13
04
06
02
01
0$
#120000
1#
10
14
16
12
11
1$
#160000
0#
0"
1!
00
0/
1.
15
03
04
06
02
01
0$
#200000
1#
10
14
#240000
0#
1"
00
1/
13
04
16
12
11
1$
#280000
1#
10
14
#320000
0#
0"
0!
00
0/
0.
05
03
04
06
02
01
0$
#400000
1#
1"
10
1/
13
14
16
12
11
1$
#440000
1!
1.
15
#480000
0"
0/
03
06
02
01
0$
#560000
1"
1/
13
16
12
11
1$
#600000
0!
0.
05
#640000
0"
0#
00
0/
03
04
06
02
01
0$
