aula03/parte01/simulation/qsim/AdderDemo.msim.vcd
$comment
	File created using the following command:
		vcd file AdderDemo.msim.vcd -direction
$end
$date
	Thu Mar 24 11:46:17 2022
$end
$version
	ModelSim Version 10.5b
$end
$timescale
	1ps
$end

$scope module adder4_vhd_vec_tst $end
$var wire 1 ! a [3] $end
$var wire 1 " a [2] $end
$var wire 1 # a [1] $end
$var wire 1 $ a [0] $end
$var wire 1 % b [3] $end
$var wire 1 & b [2] $end
$var wire 1 ' b [1] $end
$var wire 1 ( b [0] $end
$var wire 1 ) cin $end
$var wire 1 * cout $end
$var wire 1 + s [3] $end
$var wire 1 , s [2] $end
$var wire 1 - s [1] $end
$var wire 1 . s [0] $end

$scope module i1 $end
$var wire 1 / gnd $end
$var wire 1 0 vcc $end
$var wire 1 1 unknown $end
$var wire 1 2 devoe $end
$var wire 1 3 devclrn $end
$var wire 1 4 devpor $end
$var wire 1 5 ww_devoe $end
$var wire 1 6 ww_devclrn $end
$var wire 1 7 ww_devpor $end
$var wire 1 8 ww_a [3] $end
$var wire 1 9 ww_a [2] $end
$var wire 1 : ww_a [1] $end
$var wire 1 ; ww_a [0] $end
$var wire 1 < ww_b [3] $end
$var wire 1 = ww_b [2] $end
$var wire 1 > ww_b [1] $end
$var wire 1 ? ww_b [0] $end
$var wire 1 @ ww_cin $end
$var wire 1 A ww_s [3] $end
$var wire 1 B ww_s [2] $end
$var wire 1 C ww_s [1] $end
$var wire 1 D ww_s [0] $end
$var wire 1 E ww_cout $end
$var wire 1 F \s[0]~output_o\ $end
$var wire 1 G \s[1]~output_o\ $end
$var wire 1 H \s[2]~output_o\ $end
$var wire 1 I \s[3]~output_o\ $end
$var wire 1 J \cout~output_o\ $end
$var wire 1 K \cin~input_o\ $end
$var wire 1 L \a[0]~input_o\ $end
$var wire 1 M \b[0]~input_o\ $end
$var wire 1 N \bit0|s~1_cout\ $end
$var wire 1 O \bit0|s~2_combout\ $end
$var wire 1 P \b[1]~input_o\ $end
$var wire 1 Q \a[1]~input_o\ $end
$var wire 1 R \bit0|s~3\ $end
$var wire 1 S \bit0|s~4_combout\ $end
$var wire 1 T \b[2]~input_o\ $end
$var wire 1 U \a[2]~input_o\ $end
$var wire 1 V \bit0|s~5\ $end
$var wire 1 W \bit0|s~6_combout\ $end
$var wire 1 X \b[3]~input_o\ $end
$var wire 1 Y \a[3]~input_o\ $end
$var wire 1 Z \bit0|s~7\ $end
$var wire 1 [ \bit0|s~8_combout\ $end
$var wire 1 \ \bit0|s~9\ $end
$var wire 1 ] \bit0|s~10_combout\ $end
$upscope $end
$upscope $end
$enddefinitions $end
#0
$dumpvars
0)
0*
0/
10
x1
12
13
14
15
16
17
0@
0E
0F
0G
0H
0I
0J
0K
0L
0M
0N
0O
0P
0Q
1R
0S
0T
0U
0V
0W
0X
0Y
1Z
0[
0\
0]
0!
0"
0#
0$
0%
0&
0'
0(
08
09
0:
0;
0<
0=
0>
0?
0A
0B
0C
0D
0+
0,
0-
0.
$end
#40000
1$
1(
1;
1?
1M
1L
1O
1N
0O
0R
1S
1F
1D
0F
1.
0D
1G
0.
1C
1-
#80000
1!
1"
1#
1%
1&
1'
1:
19
18
1>
1=
1<
1X
1T
1P
1Y
1U
1Q
1V
0Z
1\
1]
1[
1W
1H
1I
1J
1B
1A
1E
1,
1+
1*
#120000
0"
0#
0%
0&
0(
0:
09
0?
0=
0<
0X
0T
0M
0U
0Q
0S
0N
1Z
0[
1[
0\
1O
1R
1S
0V
0]
0I
0G
0W
0A
0C
1F
1I
0-
0+
1D
1A
0J
1G
1.
1+
0E
1C
0H
0*
1-
0B
0,
#160000
0'
0$
1)
0>
0;
1@
1K
0L
0P
0S
0G
0C
0-
#200000
1'
1%
0!
1>
1<
08
0Y
1X
1P
1S
1G
1C
1-
#240000
0'
0%
1!
1$
1"
1#
0>
0<
1;
1:
19
18
1Y
1U
1Q
1L
0X
0P
0O
0R
1W
0S
1V
0W
0Z
1H
0F
0[
1\
1B
0D
0G
0.
1,
1]
0C
0H
0-
0B
0I
0,
0A
1J
0+
1E
1*
#280000
0!
0$
0"
0#
0;
0:
09
08
0Y
0U
0Q
0L
1O
1R
1S
0V
1W
1Z
1[
0\
0]
0[
0W
0S
1I
1H
1G
1F
1A
1B
1C
1D
0G
0H
0I
0J
1.
1-
1,
1+
0C
0B
0A
0E
0-
0,
0+
0*
#450000
0)
0@
0K
0O
0F
0D
0.
