aula03/parte04/simulation/qsim/ALUDemo.msim.vcd
$comment
	File created using the following command:
		vcd file ALUDemo.msim.vcd -direction
$end
$date
	Wed Mar 30 12:45:04 2022
$end
$version
	ModelSim Version 10.5b
$end
$timescale
	1ps
$end

$scope module bin2bcd_vhd_vec_tst $end
$var wire 1 ! inport [3] $end
$var wire 1 " inport [2] $end
$var wire 1 # inport [1] $end
$var wire 1 $ inport [0] $end
$var wire 1 % outport [4] $end
$var wire 1 & outport [3] $end
$var wire 1 ' outport [2] $end
$var wire 1 ( outport [1] $end
$var wire 1 ) outport [0] $end

$scope module i1 $end
$var wire 1 * gnd $end
$var wire 1 + vcc $end
$var wire 1 , unknown $end
$var wire 1 - devoe $end
$var wire 1 . devclrn $end
$var wire 1 / devpor $end
$var wire 1 0 ww_devoe $end
$var wire 1 1 ww_devclrn $end
$var wire 1 2 ww_devpor $end
$var wire 1 3 ww_inport [3] $end
$var wire 1 4 ww_inport [2] $end
$var wire 1 5 ww_inport [1] $end
$var wire 1 6 ww_inport [0] $end
$var wire 1 7 ww_outport [4] $end
$var wire 1 8 ww_outport [3] $end
$var wire 1 9 ww_outport [2] $end
$var wire 1 : ww_outport [1] $end
$var wire 1 ; ww_outport [0] $end
$var wire 1 < \outport[0]~output_o\ $end
$var wire 1 = \outport[1]~output_o\ $end
$var wire 1 > \outport[2]~output_o\ $end
$var wire 1 ? \outport[3]~output_o\ $end
$var wire 1 @ \outport[4]~output_o\ $end
$var wire 1 A \inport[0]~input_o\ $end
$var wire 1 B \inport[3]~input_o\ $end
$var wire 1 C \inport[2]~input_o\ $end
$var wire 1 D \inport[1]~input_o\ $end
$var wire 1 E \outport~17_combout\ $end
$var wire 1 F \outport~16_combout\ $end
$var wire 1 G \outport~15_combout\ $end
$var wire 1 H \outport~18_combout\ $end
$upscope $end
$upscope $end
$enddefinitions $end
#0
$dumpvars
0*
1+
x,
1-
1.
1/
10
11
12
0<
0=
0>
0?
0@
0A
0B
0C
0D
0E
0F
0G
0H
0!
0"
0#
0$
03
04
05
06
07
08
09
0:
0;
0%
0&
0'
0(
0)
$end
#30000
1$
16
1A
1<
1;
1)
#60000
0$
1#
06
15
1D
0A
1E
0<
0;
1=
0)
1:
1(
#90000
1$
16
1A
1<
1;
1)
#120000
0$
0#
1"
06
05
14
1C
0D
0A
0E
1F
0<
0;
1>
0=
0)
19
0:
0(
1'
#150000
1$
16
1A
1<
1;
1)
#180000
0$
1#
06
15
1D
0A
1E
0<
0;
1=
0)
1:
1(
#210000
1$
16
1A
1<
1;
1)
#240000
0$
0#
0"
1!
06
05
04
13
1B
0C
0D
0A
0E
0F
1G
0<
0;
1?
0>
0=
0)
18
09
0:
0(
0'
1&
#270000
1$
16
1A
1<
1;
1)
#300000
0$
1#
06
15
1D
0A
0G
1H
0<
0;
1@
0?
0)
17
08
0&
1%
#330000
1$
16
1A
1<
1;
1)
#360000
0$
0#
1"
06
05
14
1C
0D
0A
1E
0<
0;
1=
0)
1:
1(
#390000
1$
16
1A
1<
1;
1)
#420000
0$
1#
06
15
1D
0A
0E
1F
0<
0;
1>
0=
0)
19
0:
0(
1'
#450000
1$
16
1A
1<
1;
1)
#480000
0$
0#
0"
0!
06
05
04
03
0B
0C
0D
0A
0F
0H
0<
0;
0@
0>
0)
07
09
0'
0%
#510000
1$
16
1A
1<
1;
1)
#540000
0$
1#
06
15
1D
0A
1E
0<
0;
1=
0)
1:
1(
#570000
1$
16
1A
1<
1;
1)
#600000
0$
0#
1"
06
05
14
1C
0D
0A
0E
1F
0<
0;
1>
0=
0)
19
0:
0(
1'
#630000
1$
16
1A
1<
1;
1)
#660000
0$
1#
06
15
1D
0A
1E
0<
0;
1=
0)
1:
1(
#690000
1$
16
1A
1<
1;
1)
#720000
0$
0#
0"
1!
06
05
04
13
1B
0C
0D
0A
0E
0F
1G
0<
0;
1?
0>
0=
0)
18
09
0:
0(
0'
1&
#750000
1$
16
1A
1<
1;
1)
#780000
0$
1#
06
15
1D
0A
0G
1H
0<
0;
1@
0?
0)
17
08
0&
1%
#810000
1$
16
1A
1<
1;
1)
#840000
0$
0#
1"
06
05
14
1C
0D
0A
1E
0<
0;
1=
0)
1:
1(
#870000
1$
16
1A
1<
1;
1)
#900000
0$
1#
06
15
1D
0A
0E
1F
0<
0;
1>
0=
0)
19
0:
0(
1'
#930000
1$
16
1A
1<
1;
1)
#960000
0$
0#
0"
0!
06
05
04
03
0B
0C
0D
0A
0F
0H
0<
0;
0@
0>
0)
07
09
0'
0%
#990000
1$
16
1A
1<
1;
1)
