aula03/parte04/simulation/qsim/ALUDemo.msim.vcd
$comment
	File created using the following command:
		vcd file ALUDemo.msim.vcd -direction
$end
$date
	Wed Mar 30 13:11:17 2022
$end
$version
	ModelSim Version 10.5b
$end
$timescale
	1ps
$end

$scope module bin2bcd_vhd_vec_tst $end
$var wire 1 ! inport [3] $end
$var wire 1 " inport [2] $end
$var wire 1 # inport [1] $end
$var wire 1 $ inport [0] $end
$var wire 1 % outport [7] $end
$var wire 1 & outport [6] $end
$var wire 1 ' outport [5] $end
$var wire 1 ( outport [4] $end
$var wire 1 ) outport [3] $end
$var wire 1 * outport [2] $end
$var wire 1 + outport [1] $end
$var wire 1 , outport [0] $end

$scope module i1 $end
$var wire 1 - gnd $end
$var wire 1 . vcc $end
$var wire 1 / unknown $end
$var wire 1 0 devoe $end
$var wire 1 1 devclrn $end
$var wire 1 2 devpor $end
$var wire 1 3 ww_devoe $end
$var wire 1 4 ww_devclrn $end
$var wire 1 5 ww_devpor $end
$var wire 1 6 ww_inport [3] $end
$var wire 1 7 ww_inport [2] $end
$var wire 1 8 ww_inport [1] $end
$var wire 1 9 ww_inport [0] $end
$var wire 1 : ww_outport [7] $end
$var wire 1 ; ww_outport [6] $end
$var wire 1 < ww_outport [5] $end
$var wire 1 = ww_outport [4] $end
$var wire 1 > ww_outport [3] $end
$var wire 1 ? ww_outport [2] $end
$var wire 1 @ ww_outport [1] $end
$var wire 1 A ww_outport [0] $end
$var wire 1 B \outport[0]~output_o\ $end
$var wire 1 C \outport[1]~output_o\ $end
$var wire 1 D \outport[2]~output_o\ $end
$var wire 1 E \outport[3]~output_o\ $end
$var wire 1 F \outport[4]~output_o\ $end
$var wire 1 G \outport[5]~output_o\ $end
$var wire 1 H \outport[6]~output_o\ $end
$var wire 1 I \outport[7]~output_o\ $end
$var wire 1 J \inport[0]~input_o\ $end
$var wire 1 K \inport[3]~input_o\ $end
$var wire 1 L \inport[2]~input_o\ $end
$var wire 1 M \inport[1]~input_o\ $end
$var wire 1 N \outport~17_combout\ $end
$var wire 1 O \outport~16_combout\ $end
$var wire 1 P \outport~15_combout\ $end
$var wire 1 Q \outport~18_combout\ $end
$upscope $end
$upscope $end
$enddefinitions $end
#0
$dumpvars
0-
1.
x/
10
11
12
13
14
15
0B
0C
0D
0E
0F
0G
0H
0I
0J
0K
0L
0M
0N
0O
0P
0Q
0!
0"
0#
0$
06
07
08
09
0:
0;
0<
0=
0>
0?
0@
0A
0%
0&
0'
0(
0)
0*
0+
0,
$end
#30000
1$
19
1J
1B
1A
1,
#60000
0$
1#
09
18
1M
0J
1N
0B
0A
1C
0,
1@
1+
#90000
1$
19
1J
1B
1A
1,
#120000
0$
0#
1"
09
08
17
1L
0M
0J
0N
1O
0B
0A
1D
0C
0,
1?
0@
0+
1*
#150000
1$
19
1J
1B
1A
1,
#180000
0$
1#
09
18
1M
0J
1N
0B
0A
1C
0,
1@
1+
#210000
1$
19
1J
1B
1A
1,
#240000
0$
0#
0"
1!
09
08
07
16
1K
0L
0M
0J
0N
0O
1P
0B
0A
1E
0D
0C
0,
1>
0?
0@
0+
0*
1)
#270000
1$
19
1J
1B
1A
1,
#300000
0$
1#
09
18
1M
0J
0P
1Q
0B
0A
1F
0E
0,
1=
0>
0)
1(
#330000
1$
19
1J
1B
1A
1,
#360000
0$
0#
1"
09
08
17
1L
0M
0J
1N
0B
0A
1C
0,
1@
1+
#390000
1$
19
1J
1B
1A
1,
#420000
0$
1#
09
18
1M
0J
0N
1O
0B
0A
1D
0C
0,
1?
0@
0+
1*
#450000
1$
19
1J
1B
1A
1,
#480000
0$
0#
0"
0!
09
08
07
06
0K
0L
0M
0J
0O
0Q
0B
0A
0F
0D
0,
0=
0?
0*
0(
#510000
1$
19
1J
1B
1A
1,
#540000
0$
1#
09
18
1M
0J
1N
0B
0A
1C
0,
1@
1+
#570000
1$
19
1J
1B
1A
1,
#600000
0$
0#
1"
09
08
17
1L
0M
0J
0N
1O
0B
0A
1D
0C
0,
1?
0@
0+
1*
#630000
1$
19
1J
1B
1A
1,
#660000
0$
1#
09
18
1M
0J
1N
0B
0A
1C
0,
1@
1+
#690000
1$
19
1J
1B
1A
1,
#720000
0$
0#
0"
1!
09
08
07
16
1K
0L
0M
0J
0N
0O
1P
0B
0A
1E
0D
0C
0,
1>
0?
0@
0+
0*
1)
#750000
1$
19
1J
1B
1A
1,
#780000
0$
1#
09
18
1M
0J
0P
1Q
0B
0A
1F
0E
0,
1=
0>
0)
1(
#810000
1$
19
1J
1B
1A
1,
#840000
0$
0#
1"
09
08
17
1L
0M
0J
1N
0B
0A
1C
0,
1@
1+
#870000
1$
19
1J
1B
1A
1,
#900000
0$
1#
09
18
1M
0J
0N
1O
0B
0A
1D
0C
0,
1?
0@
0+
1*
#930000
1$
19
1J
1B
1A
1,
#960000
0$
0#
0"
0!
09
08
07
06
0K
0L
0M
0J
0O
0Q
0B
0A
0F
0D
0,
0=
0?
0*
0(
#990000
1$
19
1J
1B
1A
1,
